…
# 5. Reading dataset

``` r
dataset <- read_excel('FEV-data-Excel.xlsx')
```

``` r
sample(dataset)
```

    ## # A tibble: 53 × 25
    ##    Heigh…¹ Maxim…² Engin…³ Minim…⁴ mean …⁵ Type …⁶ Maxim…⁷ Model Minim…⁸ Boot …⁹
    ##      <dbl>   <dbl>   <dbl>   <dbl>   <dbl> <chr>     <dbl> <chr>   <dbl>   <dbl>
    ##  1    163.     150     360    2565    24.4 disc (…     640 e-tr…  345700     660
    ##  2    163.     150     313    2445    23.8 disc (…     670 e-tr…  308400     660
    ##  3    163.     150     503    2695    27.6 disc (…     565 e-tr…  414900     660
    ##  4    162.     150     313    2445    23.3 disc (…     640 e-tr…  319700     615
    ##  5    162.     150     360    2595    23.8 disc (…     670 e-tr…  357000     615
    ##  6    162.     150     503    2695    27.2 disc (…     565 e-tr…  426200     615
    ##  7    157       50     170    1440    13.1 disc (…     440 i3     169700     260
    ##  8    159       50     184    1460    14.3 disc (…     440 i3s    184200     260
    ##  9    167.     150     286    2260    18.8 disc (…     540 iX3    282900     510
    ## 10    152.     100     136    1541    NA   disc (…     459 ë-C4   125000     380
    ## # … with 43 more rows, 15 more variables: `Length [cm]` <dbl>,
    ## #   `Range (WLTP) [km]` <dbl>, `Wheelbase [cm]` <dbl>, `Tire size [in]` <dbl>,
    ## #   `Permissable gross weight [kg]` <dbl>, `Drive type` <chr>,
    ## #   `Acceleration 0-100 kph [s]` <dbl>, `Maximum speed [kph]` <dbl>,
    ## #   `Battery capacity [kWh]` <dbl>, `Number of doors` <dbl>,
    ## #   `Car full name` <chr>, `Number of seats` <dbl>,
    ## #   `Maximum torque [Nm]` <dbl>, Make <chr>, `Width [cm]` <dbl>, and …
…
